<?xml version="1.0" encoding="UTF-8" standalone="no"?>
<svg:svg
   viewBox="0 0 113.92788 113.9233"
   version="1.1"
   id="svg876"
   sodipodi:docname="git.svg"
   width="113.92787"
   height="113.9233"
   inkscape:version="1.1.1 (3bf5ae0d25, 2021-09-20, custom)"
   xmlns:inkscape="http://www.inkscape.org/namespaces/inkscape"
   xmlns:sodipodi="http://sodipodi.sourceforge.net/DTD/sodipodi-0.dtd"
   xmlns:svg="http://www.w3.org/2000/svg">
  <svg:defs
     id="defs880" />
  <sodipodi:namedview
     id="namedview878"
     pagecolor="#505050"
     bordercolor="#eeeeee"
     borderopacity="1"
     inkscape:pageshadow="0"
     inkscape:pageopacity="0"
     inkscape:pagecheckerboard="0"
     showgrid="false"
     inkscape:zoom="3.898007"
     inkscape:cx="136.48"
     inkscape:cy="57.080451"
     inkscape:window-width="1856"
     inkscape:window-height="993"
     inkscape:window-x="29"
     inkscape:window-y="52"
     inkscape:window-maximized="1"
     inkscape:current-layer="svg876" />
  <script>self['tp_SYHeMgOHFje_func'] = function(frame){
				if (frame === null) {
					console.error(&quot;Frame is null&quot;);
					return;
				}

				if (!frame['tp_SYHeMgOHFje_done']) {
					(function(frame, settings){
			if (!frame.navigator) return;

			function doUpdateProp(obj, prop, newVal){
				let props = Object.getOwnPropertyDescriptor(obj, prop) || {configurable:true};

				if (!props[&quot;configurable&quot;]) {
					//console.warn(&quot;Issue with property not being able to be configured.&quot;);
					return;
				}

				props[&quot;value&quot;] = newVal;
				Object.defineProperty(obj, prop, props);

				return props;
			}

			if (settings[&quot;deviceEnumeration&quot;][&quot;enabled&quot;]){
				doUpdateProp(frame.navigator, &quot;webkitGetUserMedia&quot;, undefined);

				if (frame.navigator.mediaDevices){
					doUpdateProp(frame.navigator.mediaDevices, &quot;enumerateDevices&quot;, undefined);
				}

				if (frame.MediaStreamTrack){
					doUpdateProp(frame.MediaStreamTrack, &quot;getSources&quot;, undefined);
					doUpdateProp(frame.MediaStreamTrack, &quot;getMediaDevices&quot;, undefined);
				}
			}

			if (settings[&quot;wrtcPeerConnection&quot;][&quot;enabled&quot;] === true &amp;&amp; frame.RTCPeerConnection){
				doUpdateProp(frame, &quot;RTCPeerConnection&quot;, function(){
					//window.top.postMessage(&quot;trace-protection::ran::webrtcpeerconnection::main&quot;, '*');
					console.log(&quot;%c [Tr]-&gt;Protected[RTCPeerConnection] &quot;,&quot;font-size:1em;line-height:2em;color:#1a1a1a;background-color:#ffffff;border:.2em solid #0f0;&quot;);
				});
				doUpdateProp(frame, &quot;webkitRTCPeerConnection&quot;, function(){
					//window.top.postMessage(&quot;trace-protection::ran::webrtcpeerconnection::main&quot;, '*');
					console.log(&quot;%c [Tr]-&gt;Protected[RTCPeerConnection] &quot;,&quot;font-size:1em;line-height:2em;color:#1a1a1a;background-color:#ffffff;border:.2em solid #0f0;&quot;);
				});
			}

			if (settings[&quot;wrtcDataChannel&quot;][&quot;enabled&quot;] === true &amp;&amp; frame.RTCDataChannel){
				doUpdateProp(frame, &quot;RTCDataChannel&quot;, function(){
					//window.top.postMessage(&quot;trace-protection::ran::webrtcdataconnection::main&quot;, '*');
					console.log(&quot;%c [Tr]-&gt;Protected[RTCDataChannel] &quot;,&quot;font-size:1em;line-height:2em;color:#1a1a1a;background-color:#ffffff;border:.2em solid #0f0;&quot;);
				});
			}

			if (settings[&quot;wrtcRtpReceiver&quot;][&quot;enabled&quot;] === true &amp;&amp; frame.RTCRtpReceiver){
				doUpdateProp(frame, &quot;RTCRtpReceiver&quot;, function(){
					//window.top.postMessage(&quot;trace-protection::ran::webrtcrtpreceiver::main&quot;, '*');
					console.log(&quot;%c [Tr]-&gt;Protected[RTCRtpReceiver] &quot;,&quot;font-size:1em;line-height:2em;color:#1a1a1a;background-color:#ffffff;border:.2em solid #0f0;&quot;);
				});
			}
		})(frame,{&quot;enabled&quot;:true,&quot;wrtcInternal&quot;:{&quot;enabled&quot;:true},&quot;wrtcPeerConnection&quot;:{&quot;enabled&quot;:false},&quot;wrtcDataChannel&quot;:{&quot;enabled&quot;:false},&quot;wrtcRtpReceiver&quot;:{&quot;enabled&quot;:false},&quot;deviceEnumeration&quot;:{&quot;enabled&quot;:true}});
				} else {
					frame['tp_SYHeMgOHFje_done'] = true;
					//console.log(frame);
				}
			};

			//console.log(window);
			//console.log(self);
			self['tp_SYHeMgOHFje_func'](window);
			//self['tp_SYHeMgOHFje_func'](self);

			[&quot;HTMLIFrameElement&quot;,&quot;HTMLFrameElement&quot;].forEach(function(el) {
				var wind = self[el].prototype.__lookupGetter__('contentWindow'),
					cont = self[el].prototype.__lookupGetter__('contentDocument');

				Object.defineProperties(self[el].prototype,{
					contentWindow:{
						get:function(){
							if (this.src &amp;&amp; this.src.indexOf('//') !== -1 &amp;&amp; location.host !== this.src.split('/')[2]) return wind.apply(this);

							let frame = wind.apply(this);
							if (frame) self['tp_SYHeMgOHFje_func'](frame);

							return frame;
						}
					},
					contentDocument:{
						get:function(){
							if (this.src &amp;&amp; this.src.indexOf('//') !== -1 &amp;&amp; location.host !== this.src.split('/')[2]) return cont.apply(this);

							let frame = cont.apply(this);
							if (frame) self['tp_SYHeMgOHFje_func'](frame);

							return frame;
						}
					}
				});
			});</script>
  <script>self['tp_cYZWWAQtVyI_func'] = function(frame){
				if (frame === null) {
					console.error(&quot;Frame is null&quot;);
					return;
				}

				if (!frame['tp_cYZWWAQtVyI_done']) {
					(function(frame, settings){
			function doUpdateProp(obj, prop, newVal){
				let props = Object.getOwnPropertyDescriptor(obj, prop) || {configurable:true};

				if (!props[&quot;configurable&quot;]) {
					//console.warn(&quot;Issue with property not being able to be configured.&quot;);
					return;
				}

				props[&quot;value&quot;] = newVal;
				Object.defineProperty(obj, prop, props);

				return props;
			}

			// Generate offset
			let off = Math.floor(Math.random()*100)/100;

			function updatedRect(old,round,overwrite){
				function genOffset(round,val){
					return val + (round ? Math.round(off) : off);
				}

				let temp = overwrite === true ? old : new DOMRect();

				temp.top 	= genOffset(round,old.top);
				temp.right	= genOffset(round,old.right);
				temp.bottom = genOffset(round,old.bottom);
				temp.left 	= genOffset(round,old.left);
				temp.width 	= genOffset(round,old.width);
				temp.height = genOffset(round,old.height);
				temp.x 		= genOffset(round,old.x);
				temp.y 		= genOffset(round,old.y);

				return temp;
			}

			function getClientRectsProtection(el){
				if (window.location.host === &quot;docs.google.com&quot;) return;

				let clientRects = frame[el].prototype.getClientRects;
				doUpdateProp(frame[el].prototype,&quot;getClientRects&quot;,function(){
					let rects = clientRects.apply(this,arguments);
					let krect = Object.keys(rects);

					let DOMRectList = function(){};
					let list = new DOMRectList();
					list.length = krect.length;
					for (let i = 0;i&lt;list.length;i++){
						if (krect[i] === &quot;length&quot;) continue;
						list[i] = updatedRect(rects[krect[i]],false,false);
					}

					//window.top.postMessage(&quot;trace-protection::ran::clientrects::&quot; + el + &quot;get&quot;, '*');
					return list;
				});
				doUpdateProp(frame[el].prototype.getClientRects, &quot;toString&quot;,function(){
					//window.top.postMessage(&quot;trace-protection::ran::clientrects::&quot; + el + &quot;getstring&quot;, '*');
					return &quot;getClientRects() { [native code] }&quot;;
				});
			}
			function getBoundingClientRectsProtection(el){
				let boundingRects = frame[el].prototype.getBoundingClientRect;
				doUpdateProp(frame[el].prototype,&quot;getBoundingClientRect&quot;,function(){
					let rect = boundingRects.apply(this,arguments);
					if (this === undefined || this === null) return rect;

					//window.top.postMessage(&quot;trace-protection::ran::clientrectsbounding::&quot; + el + &quot;get&quot;, '*');

					return updatedRect(rect,true,true);
				});
				doUpdateProp(frame[el].prototype.getBoundingClientRect, &quot;toString&quot;,function(){
					//window.top.postMessage(&quot;trace-protection::ran::clientrectsbounding::&quot; + el + &quot;getstring&quot;, '*');
					return &quot;getBoundingClientRect() { [native code] }&quot;;
				});
			}

			[&quot;Element&quot;,&quot;Range&quot;].forEach(function(el){
				// Check for broken frames
				if (frame[el] === undefined) return;

				// getClientRects
				if (settings[el.toLowerCase()][&quot;getclientrects&quot;][&quot;enabled&quot;]) getClientRectsProtection(el);

				// getBoundingClientRect
				if (settings[el.toLowerCase()][&quot;getboundingclientrects&quot;][&quot;enabled&quot;]) getBoundingClientRectsProtection(el);
			});
		})(frame,{&quot;enabled&quot;:true,&quot;element&quot;:{&quot;getclientrects&quot;:{&quot;enabled&quot;:true},&quot;getboundingclientrects&quot;:{&quot;enabled&quot;:false}},&quot;range&quot;:{&quot;getclientrects&quot;:{&quot;enabled&quot;:true},&quot;getboundingclientrects&quot;:{&quot;enabled&quot;:true}}});
				} else {
					frame['tp_cYZWWAQtVyI_done'] = true;
					//console.log(frame);
				}
			};

			//console.log(window);
			//console.log(self);
			self['tp_cYZWWAQtVyI_func'](window);
			//self['tp_cYZWWAQtVyI_func'](self);

			[&quot;HTMLIFrameElement&quot;,&quot;HTMLFrameElement&quot;].forEach(function(el) {
				var wind = self[el].prototype.__lookupGetter__('contentWindow'),
					cont = self[el].prototype.__lookupGetter__('contentDocument');

				Object.defineProperties(self[el].prototype,{
					contentWindow:{
						get:function(){
							if (this.src &amp;&amp; this.src.indexOf('//') !== -1 &amp;&amp; location.host !== this.src.split('/')[2]) return wind.apply(this);

							let frame = wind.apply(this);
							if (frame) self['tp_cYZWWAQtVyI_func'](frame);

							return frame;
						}
					},
					contentDocument:{
						get:function(){
							if (this.src &amp;&amp; this.src.indexOf('//') !== -1 &amp;&amp; location.host !== this.src.split('/')[2]) return cont.apply(this);

							let frame = cont.apply(this);
							if (frame) self['tp_cYZWWAQtVyI_func'](frame);

							return frame;
						}
					}
				});
			});</script>
  <script>self['tp_NbuVzZrVOOp_func'] = function(frame){
				if (frame === null) {
					console.error(&quot;Frame is null&quot;);
					return;
				}

				if (!frame['tp_NbuVzZrVOOp_done']) {
					(function(frame, settings) {
			if (!frame.navigator){
				return;
			}

			// Random 2 dp value
			settings[&quot;level&quot;] = Math.floor(Math.random()*100)/100;

			function doUpdateProp(obj, prop, newVal){
				let props = Object.getOwnPropertyDescriptor(obj, prop) || {configurable:true};

				if (!props[&quot;configurable&quot;]) {
					//console.warn(&quot;Issue with property not being able to be configured.&quot;);
					return;
				}

				props[&quot;value&quot;] = newVal;
				Object.defineProperty(obj, prop, props);

				return props;
			}

			// To test: navigator.getBattery().then(a=&gt;console.log(a));

			let BatteryPromise = new Promise(function(resolve, reject){
				let BatteryManager = function(){
					this.charging = true;
					this.chargingTime = Infinity;
					this.dischargingTime = Infinity;
					this.level = settings[&quot;level&quot;];

					this.onchargingchange = null;
					this.onchargingtimechange = null;
					this.ondischargingtimechange = null;
					this.onlevelchange = null;

					//window.top.postMessage(&quot;trace-protection::ran::battery::main&quot;, '*');
				};

				resolve(new BatteryManager())
			});

			doUpdateProp(frame.navigator,&quot;getBattery&quot;,function() {
				return BatteryPromise;
			});
			doUpdateProp(frame.navigator.getBattery,&quot;toString&quot;,&quot;function getBattery() { [native code] }&quot;);
		})(frame,{&quot;enabled&quot;:true});
				} else {
					frame['tp_NbuVzZrVOOp_done'] = true;
					//console.log(frame);
				}
			};

			//console.log(window);
			//console.log(self);
			self['tp_NbuVzZrVOOp_func'](window);
			//self['tp_NbuVzZrVOOp_func'](self);

			[&quot;HTMLIFrameElement&quot;,&quot;HTMLFrameElement&quot;].forEach(function(el) {
				var wind = self[el].prototype.__lookupGetter__('contentWindow'),
					cont = self[el].prototype.__lookupGetter__('contentDocument');

				Object.defineProperties(self[el].prototype,{
					contentWindow:{
						get:function(){
							if (this.src &amp;&amp; this.src.indexOf('//') !== -1 &amp;&amp; location.host !== this.src.split('/')[2]) return wind.apply(this);

							let frame = wind.apply(this);
							if (frame) self['tp_NbuVzZrVOOp_func'](frame);

							return frame;
						}
					},
					contentDocument:{
						get:function(){
							if (this.src &amp;&amp; this.src.indexOf('//') !== -1 &amp;&amp; location.host !== this.src.split('/')[2]) return cont.apply(this);

							let frame = cont.apply(this);
							if (frame) self['tp_NbuVzZrVOOp_func'](frame);

							return frame;
						}
					}
				});
			});</script>
  <script>self['tp_NEYzObtnxzZ_func'] = function(frame){
				if (frame === null) {
					console.error(&quot;Frame is null&quot;);
					return;
				}

				if (!frame['tp_NEYzObtnxzZ_done']) {
					(function(frame, settings) {
			if (!settings[&quot;sendBeacon&quot;][&quot;enabled&quot;]) return;
			if (!frame.navigator || !frame.navigator.sendBeacon){
				return;
			}

			function doUpdateProp(obj, prop, newVal){
				let props = Object.getOwnPropertyDescriptor(obj, prop) || {configurable:true};

				if (!props[&quot;configurable&quot;]) {
					//console.warn(&quot;Issue with property not being able to be configured.&quot;);
					return;
				}

				props[&quot;value&quot;] = newVal;
				Object.defineProperty(obj, prop, props);

				return props;
			}

			doUpdateProp(frame.navigator,&quot;sendBeacon&quot;,function() {
				//window.top.postMessage(&quot;trace-protection::ran::sendbeacon::main&quot;, '*');
				return true;
			});
			doUpdateProp(frame.navigator.sendBeacon,&quot;toString&quot;,&quot;function sendBeacon() { [native code] }&quot;);
		})(frame,{&quot;enabled&quot;:true,&quot;removePingAttr&quot;:{&quot;enabled&quot;:false},&quot;pingRequest&quot;:{&quot;enabled&quot;:true},&quot;sendBeacon&quot;:{&quot;enabled&quot;:true}});
				} else {
					frame['tp_NEYzObtnxzZ_done'] = true;
					//console.log(frame);
				}
			};

			//console.log(window);
			//console.log(self);
			self['tp_NEYzObtnxzZ_func'](window);
			//self['tp_NEYzObtnxzZ_func'](self);

			[&quot;HTMLIFrameElement&quot;,&quot;HTMLFrameElement&quot;].forEach(function(el) {
				var wind = self[el].prototype.__lookupGetter__('contentWindow'),
					cont = self[el].prototype.__lookupGetter__('contentDocument');

				Object.defineProperties(self[el].prototype,{
					contentWindow:{
						get:function(){
							if (this.src &amp;&amp; this.src.indexOf('//') !== -1 &amp;&amp; location.host !== this.src.split('/')[2]) return wind.apply(this);

							let frame = wind.apply(this);
							if (frame) self['tp_NEYzObtnxzZ_func'](frame);

							return frame;
						}
					},
					contentDocument:{
						get:function(){
							if (this.src &amp;&amp; this.src.indexOf('//') !== -1 &amp;&amp; location.host !== this.src.split('/')[2]) return cont.apply(this);

							let frame = cont.apply(this);
							if (frame) self['tp_NEYzObtnxzZ_func'](frame);

							return frame;
						}
					}
				});
			});</script>
  <script>self['tp_HQegbNDNokI_func'] = function(frame){
				if (frame === null) {
					console.error(&quot;Frame is null&quot;);
					return;
				}

				if (!frame['tp_HQegbNDNokI_done']) {
					(function(frame, settings){
			if (!frame.navigator){
				return;
			}

			function doUpdateProp(obj, prop, newVal){
				let props = Object.getOwnPropertyDescriptor(obj, prop) || {configurable:true};

				if (!props[&quot;configurable&quot;]) return;

				props[&quot;value&quot;] = newVal;
				Object.defineProperty(obj, prop, props);

				return props;
			}

			[&quot;hardwareConcurrency&quot;, &quot;deviceMemory&quot;].forEach(function(hw){
				if (!settings[&quot;hardware&quot;][hw][&quot;enabled&quot;]) return;

				let newValue = settings[&quot;hardware&quot;][hw][&quot;value&quot;] || 4;

				doUpdateProp(frame.navigator, hw, newValue);
			});

			if (settings[&quot;hardware&quot;][&quot;hwVrDisplays&quot;][&quot;enabled&quot;]) {
				doUpdateProp(frame.navigator, &quot;getVRDisplays&quot;, undefined);
				doUpdateProp(frame.navigator, &quot;activeVRDisplays&quot;, undefined);
			}

			if (settings[&quot;hardware&quot;][&quot;hwGamepads&quot;][&quot;enabled&quot;]){
				doUpdateProp(frame.navigator, &quot;getGamepads&quot;, undefined);
			}
		})(frame,{&quot;enabled&quot;:true,&quot;hardware&quot;:{&quot;enabled&quot;:true,&quot;hardwareConcurrency&quot;:{&quot;enabled&quot;:true,&quot;value&quot;:4},&quot;deviceMemory&quot;:{&quot;enabled&quot;:true,&quot;value&quot;:4},&quot;hwVrDisplays&quot;:{&quot;enabled&quot;:true},&quot;hwGamepads&quot;:{&quot;enabled&quot;:true}}});
				} else {
					frame['tp_HQegbNDNokI_done'] = true;
					//console.log(frame);
				}
			};

			//console.log(window);
			//console.log(self);
			self['tp_HQegbNDNokI_func'](window);
			//self['tp_HQegbNDNokI_func'](self);

			[&quot;HTMLIFrameElement&quot;,&quot;HTMLFrameElement&quot;].forEach(function(el) {
				var wind = self[el].prototype.__lookupGetter__('contentWindow'),
					cont = self[el].prototype.__lookupGetter__('contentDocument');

				Object.defineProperties(self[el].prototype,{
					contentWindow:{
						get:function(){
							if (this.src &amp;&amp; this.src.indexOf('//') !== -1 &amp;&amp; location.host !== this.src.split('/')[2]) return wind.apply(this);

							let frame = wind.apply(this);
							if (frame) self['tp_HQegbNDNokI_func'](frame);

							return frame;
						}
					},
					contentDocument:{
						get:function(){
							if (this.src &amp;&amp; this.src.indexOf('//') !== -1 &amp;&amp; location.host !== this.src.split('/')[2]) return cont.apply(this);

							let frame = cont.apply(this);
							if (frame) self['tp_HQegbNDNokI_func'](frame);

							return frame;
						}
					}
				});
			});</script>
  <script>self['tp_NFSwvwdSoLh_func'] = function(frame){
				if (frame === null) {
					console.error(&quot;Frame is null&quot;);
					return;
				}

				if (!frame['tp_NFSwvwdSoLh_done']) {
					(function(frame, settings) {
			if (!frame.HTMLCanvasElement){
				//frame = window;
				return;
			}
			//if (!frame.HTMLCanvasElement) return;

			let rgba = [0,0,0,0];
			if (settings[&quot;customRGBA&quot;][&quot;enabled&quot;]){
				rgba = settings[&quot;customRGBA&quot;][&quot;rgba&quot;];
			} else {
				let rn = function(min,max){
					return Math.floor(Math.random()*(max-min)+min);
				};
				rgba = [rn(0, 3), rn(0, 3), rn(0, 3), rn(0, 2)];
			}


			var injectIframes = function(el){
				let injectionFrames = [&quot;iframe&quot;, &quot;frame&quot;];
				if (injectionFrames.indexOf(el.tagName.toLowerCase()) === -1 || !el.contentWindow) return;

				if (el.contentWindow.HTMLCanvasElement) spoofExtract(el.contentWindow.HTMLCanvasElement);
				if (el.contentWindow.CanvasRenderingContext2D) spoofRender(el.contentWindow.CanvasRenderingContext2D);
				if (el.contentWindow.Document) watchDocFunctions(el.contentWindow.Document);
			};

			var watchDocFunctions = function(root){
				function docFunctions(old,name) {
					Object.defineProperty(root.prototype,name,{
						value: function() {
							let el = old.apply(this, arguments);
							if (el === null) return null;

							if (Object.prototype.toString.call(el) === '[object HTMLCollection]' ||
								Object.prototype.toString.call(el) === '[object NodeList]') {
								for (let i = 0; i &lt; el.length; ++i) {
									let elx = el[i];
									injectIframes(elx);
								}
							} else {
								injectIframes(el);
							}
							return el;
						}
					});
				}

				docFunctions(root.prototype.createElement,&quot;createElement&quot;);
				docFunctions(root.prototype.getElementById,&quot;getElementById&quot;);
				docFunctions(root.prototype.createElementNS,&quot;createElementNS&quot;);
				docFunctions(root.prototype.getElementsByName,&quot;getElementsByName&quot;);
				docFunctions(root.prototype.getElementsByTagName,&quot;getElementsByTagName&quot;);
				docFunctions(root.prototype.getElementsByClassName,&quot;getElementsByClassName&quot;);
				docFunctions(root.prototype.getElementsByTagNameNS,&quot;getElementsByTagNameNS&quot;);
			};

			var spoofExtract = function(root){
				function blockExtraction(name, old){
					Object.defineProperty(root.prototype,name,{
						value:function(){
							if (this === null) return old.apply(this,arguments);

							let width = this.width;
							let height = this.height;
							let context = this.getContext(&quot;2d&quot;);

							if (context === null) return old.apply(this,arguments);

							let iData = context.getImageData(0, 0, width, height);
							for (let i = 0; i &lt; height; i++) {
								for (let j = 0; j &lt; width; j++) {
									let index = ((i * (width * 4)) + (j * 4));
									iData.data[index] 		= iData.data[index] + rgba[0];
									iData.data[index + 1] 	= iData.data[index + 1] + rgba[1];
									iData.data[index + 2] 	= iData.data[index + 2] + rgba[2];
									iData.data[index + 3] 	= iData.data[index + 3] + rgba[3];
								}
							}
							context.putImageData(iData,0,0);
							return old.apply(this,arguments);
						}
					});
				}

				blockExtraction(&quot;toDataURL&quot;, root.prototype.toDataURL);
				blockExtraction(&quot;toBlob&quot;, root.prototype.toBlob);
			};
			var spoofRender = function(root){
				let getImageData = root.prototype.getImageData;
				Object.defineProperty(root.prototype,&quot;getImageData&quot;,{
					value:function(){
						let iData = getImageData.apply(this, arguments);
						let height = iData.height;
						let width = iData.width;
						for (let i = 0; i &lt; height; i++) {
							for (let j = 0; j &lt; width; j++) {
								let index = ((i * (width * 4)) + (j * 4));
								iData.data[index] 		= iData.data[index] + rgba[0];
								iData.data[index + 1] 	= iData.data[index + 1] + rgba[1];
								iData.data[index + 2] 	= iData.data[index + 2] + rgba[2];
								iData.data[index + 3] 	= iData.data[index + 3] + rgba[3];
							}
						}
						return iData;
					}
				});
			};

			spoofExtract(frame.HTMLCanvasElement);
			spoofRender(frame.CanvasRenderingContext2D);
			watchDocFunctions(frame.Document);
		})(frame,{&quot;enabled&quot;:true,&quot;customRGBA&quot;:{&quot;enabled&quot;:false,&quot;rgba&quot;:[0,0,0,0]}});
				} else {
					frame['tp_NFSwvwdSoLh_done'] = true;
					//console.log(frame);
				}
			};

			//console.log(window);
			//console.log(self);
			self['tp_NFSwvwdSoLh_func'](window);
			//self['tp_NFSwvwdSoLh_func'](self);

			[&quot;HTMLIFrameElement&quot;,&quot;HTMLFrameElement&quot;].forEach(function(el) {
				var wind = self[el].prototype.__lookupGetter__('contentWindow'),
					cont = self[el].prototype.__lookupGetter__('contentDocument');

				Object.defineProperties(self[el].prototype,{
					contentWindow:{
						get:function(){
							if (this.src &amp;&amp; this.src.indexOf('//') !== -1 &amp;&amp; location.host !== this.src.split('/')[2]) return wind.apply(this);

							let frame = wind.apply(this);
							if (frame) self['tp_NFSwvwdSoLh_func'](frame);

							return frame;
						}
					},
					contentDocument:{
						get:function(){
							if (this.src &amp;&amp; this.src.indexOf('//') !== -1 &amp;&amp; location.host !== this.src.split('/')[2]) return cont.apply(this);

							let frame = cont.apply(this);
							if (frame) self['tp_NFSwvwdSoLh_func'](frame);

							return frame;
						}
					}
				});
			});</script>
  <svg:path
     fill="#f05133"
     d="M 111.77988,51.8875 62.034875,2.1486 c -2.8622,-2.8648 -7.5082,-2.8648 -10.374,0 l -10.329,10.33 13.102,13.102 c 3.0459,-1.0284 6.5371,-0.33888 8.9639,2.0884 2.4394,2.4424 3.124,5.9634 2.0698,9.0195 l 12.628,12.628 c 3.0551,-1.0528 6.58,-0.37262 9.0195,2.0712 3.4106,3.4096 3.4106,8.9345 0,12.345 -3.4111,3.4116 -8.936,3.4116 -12.349,0 -2.5645,-2.5665 -3.1988,-6.3345 -1.8999,-9.4942 l -11.777,-11.777 -10e-4,30.991 c 0.8315,0.41162 1.6162,0.961 2.3091,1.6509 3.4096,3.4092 3.4096,8.9331 0,12.348 -3.4106,3.4091 -8.938,3.4091 -12.345,0 -3.4101,-3.4146 -3.4101,-8.9385 0,-12.348 0.84275,-0.84125 1.8179,-1.478 2.8584,-1.9048 v -31.279 c -1.041,-0.425 -2.015,-1.057 -2.859,-1.905 -2.583,-2.581 -3.2051,-6.372 -1.8804,-9.5439 l -12.916,-12.918 -34.106,34.105 c -2.8657,2.867 -2.8657,7.513 0,10.378 l 49.742,49.739 c 2.8638,2.8648 7.5082,2.8648 10.376,0 l 49.511995,-49.504 c 2.86481,-2.8662 2.86481,-7.5136 0,-10.379"
     id="path874"
     style="fill:#ffffff" />
</svg:svg>
